…
Type 'demo()' for some demos, 'help()' for on-line help, or
'help.start()' for an HTML browser interface to help.
Type 'q()' to quit R.

> ## ----env, echo = F, warning = F, message = F-----------------------------
> pacman::p_load(knitr, tidyverse, ggplot2, lubridate, tidyr, dplyr, data.table, caret, zoo, RMySQL, magrittr, MLmetrics, scales)
> opts_chunk$set(fig.path = "output/figure/", fig.align = "center", out.width = "85%", warning = F, message = F)
> theme_set(theme_bw(base_family = "FreeMono")); scriptEcho = T
> 
> ## ----eval = T, echo = scriptEcho-----------------------------------------
> d <- readRDS("../preprocessing/output/preprocessing.rds")
> d
# A tibble: 6,985 x 123
   dt                  EL_CRAC zone  BAS_2F_CRAC_10_… BAS_2F_CRAC_10_…
   <dttm>                <dbl> <chr>            <dbl>            <dbl>
 1 2018-05-29 18:00:00  41375. 1                 53.9               50
 2 2018-05-29 18:00:00  42496. 2                 53.9               50
 3 2018-05-29 18:00:00  56245. 3                 53.9               50
 4 2018-05-29 18:00:00  42691. 4                 53.9               50
 5 2018-05-29 18:00:00  35771. 5                 53.9               50
 6 2018-05-29 19:00:00  39109. 1                 53.9               50
 7 2018-05-29 19:00:00  39341. 2                 53.9               50
 8 2018-05-29 19:00:00  79982. 3                 53.9               50
 9 2018-05-29 19:00:00  41183. 4                 53.9               50
10 2018-05-29 19:00:00  34043. 5                 53.9               50
# ... with 6,975 more rows, and 118 more variables: BAS_2F_CRAC_10_TEMP <dbl>,
#   BAS_2F_CRAC_10_TEMP_S <dbl>, BAS_2F_CRAC_11_HUMI <dbl>,
#   BAS_2F_CRAC_11_HUMI_S <dbl>, BAS_2F_CRAC_11_TEMP <dbl>,
#   BAS_2F_CRAC_11_TEMP_S <dbl>, BAS_2F_CRAC_12_HUMI <dbl>,
#   BAS_2F_CRAC_12_HUMI_S <dbl>, BAS_2F_CRAC_12_TEMP <dbl>,
#   BAS_2F_CRAC_12_TEMP_S <dbl>, BAS_2F_CRAC_13_HUMI <dbl>,
#   BAS_2F_CRAC_13_HUMI_S <dbl>, BAS_2F_CRAC_13_TEMP <dbl>,
#   BAS_2F_CRAC_13_TEMP_S <dbl>, BAS_2F_CRAC_14_HUMI <dbl>,
#   BAS_2F_CRAC_14_HUMI_S <dbl>, BAS_2F_CRAC_14_TEMP <dbl>,
…
#   EL_2F_U_A2_AI84 <dbl>, EL_2F_U_A3_AI84 <dbl>, EL_2F_U_A4_AI84 <dbl>,
#   EL_2F_U_A5_AI84 <dbl>, EL_2F_U_A6_AI84 <dbl>, EL_2F_U_A7_AI84 <dbl>,
#   EL_2F_U_A8_AI84 <dbl>, EL_2F_U_A9_AI84 <dbl>, EL_2F_U_B10_AI84 <dbl>,
#   EL_2F_U_B11_AI84 <dbl>, EL_2F_U_B1_AI84 <dbl>, …
> 
> ## ----eval = T, echo = scriptEcho-----------------------------------------
> trainset_full <- d
> 
> partitionRate = .9 # 학습셋에 대한 층별로 충분한 데이터가 초기엔 없어 상당히 높은 비율로 trainset Partition Rate 을 잡음
> trainIndex <- trainset_full %>% nrow %>% multiply_by(partitionRate) %>% round %>% seq # 데이터 중 과거데이터의 90%를 모델학습에 사용하기 위한 인덱스 설정
> testIndex <- trainset_full %>% nrow %>% multiply_by(partitionRate) %>% round %>% add(1) %>% seq(nrow(trainset_full)) # 데이터 중 과거 최근데이터의 10%를 모델 예측성능 테스트에 사용하기 위한 인덱스 설정
> 
> trainset <- trainset_full %>% extract(trainIndex, ) # 학습셋 할당
> trainset
# A tibble: 6,286 x 123
   dt                  EL_CRAC zone  BAS_2F_CRAC_10_… BAS_2F_CRAC_10_…
   <dttm>                <dbl> <chr>            <dbl>            <dbl>
 1 2018-05-29 18:00:00  41375. 1                 53.9               50
 2 2018-05-29 18:00:00  42496. 2                 53.9               50
 3 2018-05-29 18:00:00  56245. 3                 53.9               50
 4 2018-05-29 18:00:00  42691. 4                 53.9               50
 5 2018-05-29 18:00:00  35771. 5                 53.9               50
 6 2018-05-29 19:00:00  39109. 1                 53.9               50
 7 2018-05-29 19:00:00  39341. 2                 53.9               50
 8 2018-05-29 19:00:00  79982. 3                 53.9               50
 9 2018-05-29 19:00:00  41183. 4                 53.9               50
10 2018-05-29 19:00:00  34043. 5                 53.9               50
# ... with 6,276 more rows, and 118 more variables: BAS_2F_CRAC_10_TEMP <dbl>,
#   BAS_2F_CRAC_10_TEMP_S <dbl>, BAS_2F_CRAC_11_HUMI <dbl>,
#   BAS_2F_CRAC_11_HUMI_S <dbl>, BAS_2F_CRAC_11_TEMP <dbl>,
#   BAS_2F_CRAC_11_TEMP_S <dbl>, BAS_2F_CRAC_12_HUMI <dbl>,
#   BAS_2F_CRAC_12_HUMI_S <dbl>, BAS_2F_CRAC_12_TEMP <dbl>,
#   BAS_2F_CRAC_12_TEMP_S <dbl>, BAS_2F_CRAC_13_HUMI <dbl>,
#   BAS_2F_CRAC_13_HUMI_S <dbl>, BAS_2F_CRAC_13_TEMP <dbl>,
#   BAS_2F_CRAC_13_TEMP_S <dbl>, BAS_2F_CRAC_14_HUMI <dbl>,
#   BAS_2F_CRAC_14_HUMI_S <dbl>, BAS_2F_CRAC_14_TEMP <dbl>,
…
#   BAS_2F_CRAC_7_TEMP_S <dbl>, BAS_2F_CRAC_8_HUMI <dbl>,
#   BAS_2F_CRAC_8_HUMI_S <dbl>, BAS_2F_CRAC_8_TEMP <dbl>,
#   BAS_2F_CRAC_8_TEMP_S <dbl>, BAS_2F_CRAC_9_HUMI <dbl>,
#   BAS_2F_CRAC_9_HUMI_S <dbl>, BAS_2F_CRAC_9_TEMP <dbl>,
#   BAS_2F_CRAC_9_TEMP_S <dbl>, BAS_CT_10_AI5 <dbl>, BAS_CT_10_AI7 <dbl>,
#   BAS_CT_12_AI1 <dbl>, BAS_CT_12_AI2 <dbl>, BAS_CT_12_AI3 <dbl>,
#   BAS_CT_12_AI4 <dbl>, BAS_EXT_HUMI <dbl>, BAS_EXT_TEMP <dbl>,
#   EL_2F_U_A10_AI84 <dbl>, EL_2F_U_A11_AI84 <dbl>, EL_2F_U_A1_AI84 <dbl>,
#   EL_2F_U_A2_AI84 <dbl>, EL_2F_U_A3_AI84 <dbl>, EL_2F_U_A4_AI84 <dbl>,
#   EL_2F_U_A5_AI84 <dbl>, EL_2F_U_A6_AI84 <dbl>, EL_2F_U_A7_AI84 <dbl>,
#   EL_2F_U_A8_AI84 <dbl>, EL_2F_U_A9_AI84 <dbl>, EL_2F_U_B10_AI84 <dbl>,
#   EL_2F_U_B11_AI84 <dbl>, EL_2F_U_B1_AI84 <dbl>, …
> testset <- trainset_full %>% extract(testIndex, ) # 테스트셋 할당
> testset
# A tibble: 699 x 123
   dt                  EL_CRAC zone  BAS_2F_CRAC_10_… BAS_2F_CRAC_10_…
   <dttm>                <dbl> <chr>            <dbl>            <dbl>
 1 2018-08-04 04:00:00  30525. 2                 53.9               50
 2 2018-08-04 04:00:00  70065. 3                 53.9               50
 3 2018-08-04 04:00:00  42244. 4                 53.9               50
 4 2018-08-04 04:00:00  12640  5                 53.9               50
 5 2018-08-04 05:00:00  40755. 1                 53.7               50
 6 2018-08-04 05:00:00  30525. 2                 53.7               50
 7 2018-08-04 05:00:00  70065. 3                 53.7               50
 8 2018-08-04 05:00:00  42244. 4                 53.7               50
 9 2018-08-04 05:00:00  12640  5                 53.7               50
10 2018-08-04 06:00:00  40755. 1                 54.5               50
# ... with 689 more rows, and 118 more variables: BAS_2F_CRAC_10_TEMP <dbl>,
#   BAS_2F_CRAC_10_TEMP_S <dbl>, BAS_2F_CRAC_11_HUMI <dbl>,
#   BAS_2F_CRAC_11_HUMI_S <dbl>, BAS_2F_CRAC_11_TEMP <dbl>,
#   BAS_2F_CRAC_11_TEMP_S <dbl>, BAS_2F_CRAC_12_HUMI <dbl>,
#   BAS_2F_CRAC_12_HUMI_S <dbl>, BAS_2F_CRAC_12_TEMP <dbl>,
#   BAS_2F_CRAC_12_TEMP_S <dbl>, BAS_2F_CRAC_13_HUMI <dbl>,
#   BAS_2F_CRAC_13_HUMI_S <dbl>, BAS_2F_CRAC_13_TEMP <dbl>,
#   BAS_2F_CRAC_13_TEMP_S <dbl>, BAS_2F_CRAC_14_HUMI <dbl>,
#   BAS_2F_CRAC_14_HUMI_S <dbl>, BAS_2F_CRAC_14_TEMP <dbl>,
…
