model
…
model

Ntels_BI_song

2018-09-06

Load preprocessed data

d <- readRDS("../preprocessing/output/preprocessing.rds")
d

## # A tibble: 6,985 x 123
##    dt                  EL_CRAC zone  BAS_2F_CRAC_10_ BAS_2F_CRAC_10_
##    <dttm>                <dbl> <chr>            <dbl>            <dbl>
##  1 2018-05-29 18:00:00  41375. 1                 53.9               50
##  2 2018-05-29 18:00:00  42496. 2                 53.9               50
##  3 2018-05-29 18:00:00  56245. 3                 53.9               50
##  4 2018-05-29 18:00:00  42691. 4                 53.9               50
##  5 2018-05-29 18:00:00  35771. 5                 53.9               50
##  6 2018-05-29 19:00:00  39109. 1                 53.9               50
##  7 2018-05-29 19:00:00  39341. 2                 53.9               50
##  8 2018-05-29 19:00:00  79982. 3                 53.9               50
##  9 2018-05-29 19:00:00  41183. 4                 53.9               50
## 10 2018-05-29 19:00:00  34043. 5                 53.9               50
## # ... with 6,975 more rows, and 118 more variables:
## #   BAS_2F_CRAC_10_TEMP <dbl>, BAS_2F_CRAC_10_TEMP_S <dbl>,
## #   BAS_2F_CRAC_11_HUMI <dbl>, BAS_2F_CRAC_11_HUMI_S <dbl>,
## #   BAS_2F_CRAC_11_TEMP <dbl>, BAS_2F_CRAC_11_TEMP_S <dbl>,
## #   BAS_2F_CRAC_12_HUMI <dbl>, BAS_2F_CRAC_12_HUMI_S <dbl>,
## #   BAS_2F_CRAC_12_TEMP <dbl>, BAS_2F_CRAC_12_TEMP_S <dbl>,
## #   BAS_2F_CRAC_13_HUMI <dbl>, BAS_2F_CRAC_13_HUMI_S <dbl>,
## #   BAS_2F_CRAC_13_TEMP <dbl>, BAS_2F_CRAC_13_TEMP_S <dbl>,
## #   BAS_2F_CRAC_14_HUMI <dbl>, BAS_2F_CRAC_14_HUMI_S <dbl>,
…
Partition

trainset_full <- d

partitionRate = .9 #           trainset Partition Rate  
trainIndex <- trainset_full %>% nrow %>% multiply_by(partitionRate) %>% round %>% seq #    90%     
testIndex <- trainset_full %>% nrow %>% multiply_by(partitionRate) %>% round %>% add(1) %>% seq(nrow(trainset_full)) #     10%       

trainset <- trainset_full %>% extract(trainIndex, ) #  
trainset

## # A tibble: 6,286 x 123
##    dt                  EL_CRAC zone  BAS_2F_CRAC_10_ BAS_2F_CRAC_10_
##    <dttm>                <dbl> <chr>            <dbl>            <dbl>
##  1 2018-05-29 18:00:00  41375. 1                 53.9               50
##  2 2018-05-29 18:00:00  42496. 2                 53.9               50
##  3 2018-05-29 18:00:00  56245. 3                 53.9               50
##  4 2018-05-29 18:00:00  42691. 4                 53.9               50
##  5 2018-05-29 18:00:00  35771. 5                 53.9               50
##  6 2018-05-29 19:00:00  39109. 1                 53.9               50
##  7 2018-05-29 19:00:00  39341. 2                 53.9               50
##  8 2018-05-29 19:00:00  79982. 3                 53.9               50
##  9 2018-05-29 19:00:00  41183. 4                 53.9               50
## 10 2018-05-29 19:00:00  34043. 5                 53.9               50
## # ... with 6,276 more rows, and 118 more variables:
## #   BAS_2F_CRAC_10_TEMP <dbl>, BAS_2F_CRAC_10_TEMP_S <dbl>,
## #   BAS_2F_CRAC_11_HUMI <dbl>, BAS_2F_CRAC_11_HUMI_S <dbl>,
## #   BAS_2F_CRAC_11_TEMP <dbl>, BAS_2F_CRAC_11_TEMP_S <dbl>,
## #   BAS_2F_CRAC_12_HUMI <dbl>, BAS_2F_CRAC_12_HUMI_S <dbl>,
## #   BAS_2F_CRAC_12_TEMP <dbl>, BAS_2F_CRAC_12_TEMP_S <dbl>,
## #   BAS_2F_CRAC_13_HUMI <dbl>, BAS_2F_CRAC_13_HUMI_S <dbl>,
## #   BAS_2F_CRAC_13_TEMP <dbl>, BAS_2F_CRAC_13_TEMP_S <dbl>,
## #   BAS_2F_CRAC_14_HUMI <dbl>, BAS_2F_CRAC_14_HUMI_S <dbl>,
…
testset <- trainset_full %>% extract(testIndex, ) #  
testset

## # A tibble: 699 x 123
##    dt                  EL_CRAC zone  BAS_2F_CRAC_10_ BAS_2F_CRAC_10_
##    <dttm>                <dbl> <chr>            <dbl>            <dbl>
##  1 2018-08-04 04:00:00  30525. 2                 53.9               50
##  2 2018-08-04 04:00:00  70065. 3                 53.9               50
##  3 2018-08-04 04:00:00  42244. 4                 53.9               50
##  4 2018-08-04 04:00:00  12640  5                 53.9               50
##  5 2018-08-04 05:00:00  40755. 1                 53.7               50
##  6 2018-08-04 05:00:00  30525. 2                 53.7               50
##  7 2018-08-04 05:00:00  70065. 3                 53.7               50
##  8 2018-08-04 05:00:00  42244. 4                 53.7               50
##  9 2018-08-04 05:00:00  12640  5                 53.7               50
## 10 2018-08-04 06:00:00  40755. 1                 54.5               50
## # ... with 689 more rows, and 118 more variables:
## #   BAS_2F_CRAC_10_TEMP <dbl>, BAS_2F_CRAC_10_TEMP_S <dbl>,
## #   BAS_2F_CRAC_11_HUMI <dbl>, BAS_2F_CRAC_11_HUMI_S <dbl>,
## #   BAS_2F_CRAC_11_TEMP <dbl>, BAS_2F_CRAC_11_TEMP_S <dbl>,
## #   BAS_2F_CRAC_12_HUMI <dbl>, BAS_2F_CRAC_12_HUMI_S <dbl>,
## #   BAS_2F_CRAC_12_TEMP <dbl>, BAS_2F_CRAC_12_TEMP_S <dbl>,
## #   BAS_2F_CRAC_13_HUMI <dbl>, BAS_2F_CRAC_13_HUMI_S <dbl>,
## #   BAS_2F_CRAC_13_TEMP <dbl>, BAS_2F_CRAC_13_TEMP_S <dbl>,
## #   BAS_2F_CRAC_14_HUMI <dbl>, BAS_2F_CRAC_14_HUMI_S <dbl>,
…
